リニア中央新幹線構想が東海道新幹線のぞみ非停車駅周辺の土地価格に与える影響
…
# 主要指標のサマリ
num_cols <- c("y_mean", "cov_water_share", "cov_gas_share", "cov_site_m2_med", "cov_yoy_mean")
summary_tbl <- panel %>% dplyr::select(dplyr::all_of(num_cols)) %>% modelsummary::datasummary_skim(type = "numeric")

# 出力
print(coverage_tbl)

## Simple feature collection with 24 features and 4 fields
## Geometry type: MULTIPOINT
## Dimension:     XY
## Bounding box:  xmin: 136.2598 ymin: 34.66675 xmax: 139.2007 ymax: 35.35748
## Geodetic CRS:  WGS 84
## # A tibble: 24 × 5
##     year                                        geometry `[0,1)` `[1,3)` `[3,5)`
##    <int>                                <MULTIPOINT [°]>   <int>   <int>   <int>
##  1  2009 ((136.2863 35.31568), (136.2873 35.31224), (13…      11       0       0
##  2  2009 ((136.2933 35.34239), (136.2908 35.32816), (13…       0      11       0
##  3  2009 ((136.2598 35.28095), (136.2863 35.35094), (13…       0       0      11
##  4  2010 ((136.2863 35.31568), (136.2873 35.31224), (13…      11       0       0
##  5  2010 ((136.2933 35.34239), (136.2908 35.32816), (13…       0      11       0
##  6  2010 ((136.2598 35.28095), (136.2863 35.35094), (13…       0       0      11
##  7  2011 ((136.2863 35.31568), (136.2873 35.31224), (13…      11       0       0
##  8  2011 ((136.2933 35.34239), (136.2908 35.32816), (13…       0      11       0
##  9  2011 ((136.2598 35.28095), (136.2863 35.35094), (13…       0       0      11
## 10  2013 ((136.2863 35.31568), (136.2873 35.31224), (13…      11       0       0
## # ℹ 14 more rows
…
